veloMisAlignGeometry: 2
Ecut value = 5.0
Gauss run option selected for RICH  =   GTB
RICH simulation for the data in year =  2016
RICH simulation now configured
ApplicationMgr    SUCCESS
====================================================================================================================================
====================================================================================================================================
ApplicationMgr       INFO Application Manager Configured successfully
ToolSvc.GitDDDB            INFO opening Git repository '/cvmfs/lhcb.cern.ch/lib/lhcb/git-conddb/DDDB.git'
ToolSvc.GitDDDB            INFO using commit 'dddb-20190206-3' corresponding to 6ccfd930ebf64b2415358a84dd3ad48b8c4d83f7
ToolSvc.GitSIMCOND         INFO opening Git repository '/cvmfs/lhcb.cern.ch/lib/lhcb/git-conddb/SIMCOND.git'
ToolSvc.GitSIMCOND         INFO using commit 'HEAD' corresponding to 23ff57a60c9e5ee8613a56f3252800a9d03f8ff2
DetectorPersistencySvc     INFO Added successfully Conversion service:XmlCnvSvc
DetectorDataSvc         SUCCESS Detector description database: git:/lhcb.xml
 Geant4 version Name: geant4-10-06-patch-01    (14-February-2020)
                       Copyright : Geant4 Collaboration
                      References : NIM A 506 (2003), 250-303
                                 : IEEE-TNS 53 (2006), 270-278
                                 : NIM A 835 (2016), 186-225
                             WWW : http://geant4.org/
SimulationSvc              INFO Loading simulation attributes file ".../SimulationRICHAerogelOff.xml" ...
GiGa.ModularPL             INFO GiGaPhysListModular initializing
GiGa.ModularPL             INFO Registered GiGa.ModularPL.EmOpt1NoCutsPhysics
GiGa.ModularPL             INFO Registered GiGa.ModularPL.DecayPhysics
GiGa.ModularPL             INFO Registered GiGa.ModularPL.EmExtraPhysics
GiGa.ModularPL             INFO Registered GiGa.ModularPL.IonPhysics
GiGa.ModularPL             INFO Registered GiGa.ModularPL.ElasticPhysics
GiGa.ModularPL             INFO Registered GiGa.ModularPL.FTFP_BERTPhysics
GiGa.ModularPL             INFO Registered GiGa.ModularPL.StoppingPhysics
GiGa.ModularPL             INFO Registered GiGa.ModularPL.NeutronTrkCut
GiGa.ModularPL             INFO Registered GiGa.ModularPL.GiGaPhysG4RDTag
GiGa.ModularPL             INFO Registered GiGa.ModularPL.GiGaPhysConstructorOp
GiGa.ModularPL.GiGaPh...WARNING duplicated property name 'RichHpdSiDetEfficiency', see https://its.cern.ch/jira/browse/GAUDI-1023
GiGa.ModularPL             INFO Registered GiGa.ModularPL.GiGaPhysConstructorHpd
GiGa.ModularPL             INFO Registered GiGa.ModularPL.GiGaPhysUnknownParticles
-------- WWWW ------- G4Exception-START -------- WWWW -------
*** G4Exception : PART102
      issued by : G4ParticleDefintion::G4ParticleDefintion
Strange PDGEncoding
-------- WWWW -------- G4Exception-END --------- WWWW -------
-------- WWWW ------- G4Exception-START -------- WWWW -------
*** G4Exception : PART102
      issued by : G4ParticleDefintion::G4ParticleDefintion
Strange PDGEncoding
-------- WWWW -------- G4Exception-END --------- WWWW -------
-------- WWWW ------- G4Exception-START -------- WWWW -------
*** G4Exception : PART102
      issued by : G4ParticleDefintion::G4ParticleDefintion
Strange PDGEncoding
-------- WWWW -------- G4Exception-END --------- WWWW -------
-------- WWWW ------- G4Exception-START -------- WWWW -------
*** G4Exception : PART102
      issued by : G4ParticleDefintion::G4ParticleDefintion
Strange PDGEncoding
-------- WWWW -------- G4Exception-END --------- WWWW -------
-------- WWWW ------- G4Exception-START -------- WWWW -------
*** G4Exception : PART102
      issued by : G4ParticleDefintion::G4ParticleDefintion
Strange PDGEncoding
-------- WWWW -------- G4Exception-END --------- WWWW -------
-------- WWWW ------- G4Exception-START -------- WWWW -------
*** G4Exception : PART102
      issued by : G4ParticleDefintion::G4ParticleDefintion
Strange PDGEncoding
-------- WWWW -------- G4Exception-END --------- WWWW -------
-------- WWWW ------- G4Exception-START -------- WWWW -------
*** G4Exception : PART102
      issued by : G4ParticleDefintion::G4ParticleDefintion
Strange PDGEncoding
-------- WWWW -------- G4Exception-END --------- WWWW -------
GiGa                       INFO Used Physics List Object is GiGaPhysListModular/GiGa.ModularPL
GiGa                       INFO Stacking Action Object is not required to be loaded
EventClockSvc.FakeEve...   INFO Event times generated from 0 with steps of 0
EventClockSvc.FakeEve...   INFO Run numbers generated from 0 every 0 events
MagneticFieldSvc           INFO Opened magnetic field file : FieldMap/v5r7/cdf/field.v5r0.c1.down.cdf
MagneticFieldSvc           INFO Opened magnetic field file : FieldMap/v5r7/cdf/field.v5r0.c2.down.cdf
MagneticFieldSvc           INFO Opened magnetic field file : FieldMap/v5r7/cdf/field.v5r0.c3.down.cdf
MagneticFieldSvc           INFO Opened magnetic field file : FieldMap/v5r7/cdf/field.v5r0.c4.down.cdf
MagneticFieldSvc           INFO Map scaled by factor 1 with polarity internally used: -1 signed relative current: -1
RichG4TrackActionPhotOpt   INFO  Rich HPD MaxQE SiDetEff  and  OverallEff  for  Aerogel Rich1Gas Rich2Gas  0.45    0.85   0.844    0.775   0.776
RichG4TrackActionPhotOpt   INFO   Rich Max Mirror reflectivity R1M1 R1M2 R2M1 R2M2  ConvSup R1 R2 0.95   0.97   0.98   0.98    1   1
RichG4TrackActionPhotOpt   INFO  Total Photon suppress factor for Aerogel Rich1Gas Rich2Gas 0.297488    0.273167    0.285066
GiGa                       INFO Used Tracking Action Object is GiGaTrackActionSequence/GiGa.TrackSeq
GiGa                       INFO Used  Stepping Action Object is GiGaStepActionSequence/GiGa.StepSeq
RootHistSvc                INFO Writing ROOT histograms to: UndefinedROOTOutputFileName
HistogramPersistencySvc    INFO Added successfully Conversion service:RootHistSvc
HistogramDataSvc           INFO Added stream file:data/gausscalo as GaussCalo
GiGa                       INFO Used  Event Action Object is GiGaEventActionSequence/GiGa.EventSeq
GiGa                       INFO Used  Run Action Object is GiGaRunActionSequence/GiGa.RunSeq
GaussGeo                   INFO ============================================
GaussGeo                   INFO =  useAlignment: 1
GaussGeo                   INFO =  alignAll: 1
GaussGeo                   INFO =  alignDetsNames:
GaussGeo                   INFO =    None
GaussGeo                   INFO ============================================
--- Warning from G4Material::G4Material() define a material with density=0 is not allowed.
 The material /dd/Materials/Vacuum will be constructed with the default minimal density: 1e-25g/cm3
GaussGeo.FieldMgr          INFO Minimum and Maximum Epsilon Step : 5e-05 0.001
GaussGeo                   INFO Global 'Field Manager' is set to 'GiGaFieldMgr/GaussGeo.FieldMgr'
GaussGeo                   INFO Global 'G4Field Manager' is set to 'G4FieldManager'
GaussGeo                   INFO Global 'G4MagneticField' is set to 'GiGaMagFieldGlobal'
GaussGeo                   INFO Global 'G4MagIntegratorStepper' is set to 'G4ClassicalRK4'
GaussGeo                WARNING Multiple indistinguishable misalignable detector elements found inside '/dd/Geometry/BeforeMagnetRegion/TT/Modules/lvLadder3'!
GaussGeo                WARNING Multiple indistinguishable misalignable detector elements found inside '/dd/Geometry/BeforeMagnetRegion/TT/Modules/lvLadder4'!
GaussGeo                WARNING Multiple indistinguishable misalignable detector elements found inside '/dd/Geometry/BeforeMagnetRegion/TT/Modules/lvLadder1'!
GaussGeo                WARNING Multiple indistinguishable misalignable detector elements found inside '/dd/Geometry/BeforeMagnetRegion/TT/Modules/lvLadder2'!
--- Warning from G4Material::G4Material() define a material with density=0 is not allowed.
 The material /dd/Materials/RichMaterials/RichHpdVacuum will be constructed with the default minimal density: 1e-25g/cm3
--- Warning from G4Material::G4Material() define a material with density=0 is not allowed.
 The material /dd/Materials/RichMaterials/HpdS20PhCathode will be constructed with the default minimal density: 1e-25g/cm3
GaussGeo.ZeroField         INFO createFieldMgr(): null magnetic field
RFileCnv                   INFO opening Root file "data/gausscalo.root" for reading
GaussGeo                WARNING Multiple indistinguishable misalignable detector elements found inside '/dd/Geometry/AfterMagnetRegion/T/IT/Ladder/lvLong410Sector'!
GaussGeo                WARNING Multiple indistinguishable misalignable detector elements found inside '/dd/Geometry/AfterMagnetRegion/T/IT/lvITX1LongLayer'!
GaussGeo                WARNING Multiple indistinguishable misalignable detector elements found inside '/dd/Geometry/AfterMagnetRegion/T/IT/lvITULongLayer'!
GaussGeo                WARNING Multiple indistinguishable misalignable detector elements found inside '/dd/Geometry/AfterMagnetRegion/T/IT/lvITVLongLayer'!
GaussGeo                WARNING Multiple indistinguishable misalignable detector elements found inside '/dd/Geometry/AfterMagnetRegion/T/IT/lvITX2LongLayer'!
GaussGeo                WARNING Multiple indistinguishable misalignable detector elements found inside '/dd/Geometry/AfterMagnetRegion/T/IT/Ladder/lvShort320Sector'!
GaussGeo                WARNING Multiple indistinguishable misalignable detector elements found inside '/dd/Geometry/AfterMagnetRegion/T/IT/lvITX1ShortLayer'!
GaussGeo                WARNING Multiple indistinguishable misalignable detector elements found inside '/dd/Geometry/AfterMagnetRegion/T/IT/lvITUShortLayer'!
GaussGeo                WARNING Multiple indistinguishable misalignable detector elements found inside '/dd/Geometry/AfterMagnetRegion/T/IT/lvITVShortLayer'!
GaussGeo                WARNING Multiple indistinguishable misalignable detector elements found inside '/dd/Geometry/AfterMagnetRegion/T/IT/lvITX2ShortLayer'!
GaussGeo                WARNING Multiple indistinguishable misalignable detector elements found inside '/dd/Geometry/AfterMagnetRegion/T/IT/Ladder/lvShort410Sector'!
GaussGeo                WARNING Multiple indistinguishable misalignable detector elements found inside '/dd/Geometry/AfterMagnetRegion/T/IT/lvITV_410_4to7_ShortLayer'!
GaussGeo                WARNING Multiple indistinguishable misalignable detector elements found inside '/dd/Geometry/AfterMagnetRegion/T/IT/lvITV_410_1to4_ShortLayer'!
GaussGeo                   INFO ================================
GaussGeo                   INFO =    Converted objects
GaussGeo                   INFO =
GaussGeo                   INFO =    DataObjects : 	3
GaussGeo                   INFO =    DetElements : 	80
GaussGeo                   INFO =    Elements : 	606
GaussGeo                   INFO =    Isotopes : 	2
GaussGeo                   INFO =    LAssemblies : 	343
GaussGeo                   INFO =    LVolumes : 	2917
GaussGeo                   INFO =    Mixtures : 	143
GaussGeo                   INFO =    Surfaces : 	4960
GaussGeo                   INFO =
GaussGeo                   INFO =    Constructed figures
GaussGeo                   INFO =
GaussGeo                   INFO =    G4Box : 	2219
GaussGeo                   INFO =    G4Cons : 	122
GaussGeo                   INFO =    G4Polycone : 	20
GaussGeo                   INFO =    G4Sphere : 	133
GaussGeo                   INFO =    G4Trap : 	399
GaussGeo                   INFO =    G4Trd : 	18
GaussGeo                   INFO =    G4Tubs : 	1490
GaussGeo                   INFO ================================
GiGa                       INFO GiGa User Interface session is not required to be launched
GiGa                       INFO Visualisation Manager is not required to be created.
RndmGenSvc.Engine          INFO Generator engine type:CLHEP::RanluxEngine
RndmGenSvc.Engine          INFO Current Seed:1234567 Luxury:3
RndmGenSvc.Engine          INFO This is the GEANT4 engine!
RndmGenSvc                 INFO Using Random engine:HepRndm::Engine<CLHEP::RanluxEngine>
GaussSequencer             INFO Member list: GaudiSequencer/Generator, GaudiSequencer/Simulation
Generator                  INFO Member list: GaudiSequencer/GeneratorSlotMainSeq
GeneratorSlotMainSeq       INFO Member list: GenInit/GaussGen, Generation, GaudiSequencer/GenMonitor
GaussGen                SUCCESS ==================================================================
GaussGen                SUCCESS Requested to process 5 events
GaussGen                SUCCESS ==================================================================
GaussGen                   INFO Create BeamForInitialization
GaussGen                   INFO Beam Parameters :
GaussGen                   INFO Energy = 6.5 TeV
GaussGen                   INFO Bunch length RMS = 53.034 mm
GaussGen                   INFO Normalized emittance = 0.00402 mm
GaussGen                   INFO Revolution frequency = 11.245 kHz
GaussGen                   INFO Total cross-section assumed = 101.5 mb
GaussGen                   INFO Horizontal crossing angle = -0.395 mrad
GaussGen                   INFO Vertical crossing angle = 0 mrad
GaussGen                   INFO Horizontal beam line angle = 0 mrad
GaussGen                   INFO Vertical beam line angle = 0 mrad
GaussGen                   INFO beta star = 3 m
GaussGen                   INFO Bunch spacing = 50 ns
GaussGen                   INFO Beam spot = (0.84,-0.18,-3.1) mm
GaussGen                   INFO Luminosity = 1.77e+29 /cm2/s
GaussGen                   INFO Nu = 1.59764
GaussGen                   INFO emittance = 5.80285e-07
GaussGen                   INFO Luminous region = ( 0.029503, 0.029503, 37.5007 ), mm
Message from PHCORK(MODCOR):: initialization
MODOP=5 -- corrects Energy from mass+flow
                            =========================
                              PHOTOS, Version:  3.56
                              Released at:  3/5/14
                            =========================
                     Photos QED corrections in Particle Decays
           Monte Carlo Program - by E. Barberio, B. van Eijk and Z. Was
           From version 2.09   - by P. Golonka and Z. Was
           From version 3.00   - by N. Davidson, T. Przedzinski and Z. Was
                  Internal (default) input parameters:
                    INTERF= 1 ISEC= 0 ITRE= 0 IEXP= 1 IFTOP= 1 IFW= 1
                    ALPHA_QED= 0x1.de3d3945c2bf2p-8 XPHCUT= 0x1.ad7f29abcaf48p-24
                    Option with interference is active
                    Option with exponentiation is active EPSEXP=0x1.a36e2eb1c432dp-14
                    Emision in t tbar production is active
                    Correction wt in decay of W is active
          WARNING:  /HEPEVT/ is not anymore used.
MODOP=2 -- blocks emission in Kl  to gamma e+e-: DEFAULT
MODOP=2 -- blocks emission in pi0 to gamma e+e-: DEFAULT
 IPHQRK_setQarknoEmission MODOP=1 -- blocks emission from light quarks:  DEFAULT
Message from PHCORK(MODCOR):: initialization
MODOP=5 -- corrects Energy from mass+flow
 *------------------------------------------------------------------------------------*
 *------------------------------------------------------------------------------------*
 *************************************
 *     TAUOLA C++ Interface v1.1.6   *
 *-----------------------------------*
 *                                   *
 *   (c) Nadia    Davidson,   (1,2)  *
 *   (c) Gizo     Nanava,     (3)    *
 *       Tomasz   Przedzinski,(4)    *
 *       Elzbieta Richter-Was,(2,4)  *
 *       Zbigniew Was         (2,5)  *
 *                                   *
 *  1) Unimelb, Melbourne, Australia *
 *  2)     INP, Krakow, Poland       *
 *  3) University Bonn, Germany      *
 *  4)      UJ, Krakow, Poland       *
 *  5)    CERN, Geneva, Switzerland  *
 *************************************
  In F3pi: chpt + 1 resonance + 2 resonance (RchT)
  KORB: rho/rhop -> pi-pi0 mixing:
  KORB: rho   = 0.769900 0.151200
  KORB: rhop  = 1.370000 0.510000 -0.110000
  KORB: K*/K*prime -> Kpi mixing:
  KORB: kstp  = 1.700000 0.235000 -0.038000
  KORB: a1/a1prime -> 3pi, KKpi mixing:
  KORB: a1    = 1.275000 0.700000
  KORB: a1prim= 1.461000 0.250000 0.000000
  KORB: K1A/K1B -> Kpipi mixing:
  KORB: K1A   = 1.270000 0.090000 1.000000
  KORB: K1B   = 1.402000 0.174000 0.800000
  KORB: rho/rhop/rhopp -> 4pi mixing:
  KORB: rho   = 0.769900 0.151200
  KORB: rhopp = 1.465000 0.310000 -0.110000
  KORB: rhoppp= 1.700000 0.235000 -0.110000
  KORB: 3PI-PI0 PARAMS: 0.000000 0.124200 0.160400 0.271100 0.444300
  KORB: PI-3PI0 PARAMS: 0.000000 1.000000
Reading SANC input files.
File 'table1-1.txt'  missing... skipped.
File 'table2-2.txt'  missing... skipped.
File 'table11-11.txt' missing... skipped.
Generation.SignalPlai...SUCCESS ==================================================================
Generation.SignalPlai...SUCCESS Using as production engine Pythia8Production
Generation.SignalPlai...SUCCESS ==================================================================
LoKiSvc                 SUCCESS
Welcome Welcome Welcome Welcome Welcome Welcome Welcome Welcome Welcome Welcome Welcome Welcome Welcome
LoKi                                                                                               LoKi
LoKi                                                                                               LoKi
LoKi                                                                                               LoKi
LoKi                                      (LOops & KInematics)                                     LoKi
LoKi                                                                                               LoKi
LoKi                         Smart & Friendly C++ Physics Analysis Tool Kit                        LoKi
LoKi                                                                                               LoKi
LoKi                                                                                               LoKi
LoKi                          Author:  Vanya BELYAEV Ivan.Belyaev@itep.ru                          LoKi
LoKi                     With the kind help of Galina Pakhlova & Sergey Barsuk                     LoKi
LoKi                                                                                               LoKi
LoKi                                       Have fun and enjoy!                                     LoKi
LoKi                                                                                               LoKi
Welcome Welcome Welcome Welcome Welcome Welcome Welcome Welcome Welcome Welcome Welcome Welcome Welcome
Welcome Welcome Welcome Welcome Welcome Welcome Welcome Welcome Welcome Welcome Welcome Welcome Welcome
 PYTHIA Warning in MultipartonInteractions::init: maximum increased by factor 5.241
Generation.SignalPlain     INFO Generating Signal events of D*(2007)~0 D*(2007)0
Generation.SignalPlain     INFO The signal decay mode has visible branching fractions of :0.0148209
Generation.BeamSpotSm...   INFO Smearing of interaction point with Gaussian distribution
Generation              SUCCESS ==================================================================
Generation              SUCCESS Requested to generate EventType 27162212
Generation              SUCCESS ==================================================================
GenMonitor                 INFO Member list: GenMonitorAlg
GenMonitorAlg              INFO Monitor will be applied to all events in container /Event/Gen/HepMCEvents
Simulation                 INFO Member list: GiGaDataStoreAlgorithm/GiGaStore, GaudiSequencer/MainEventSeq
MainEventSeq               INFO Member list: SimInit/MainEventGaussSim, GaudiSequencer/MainSimulation
MainEventGaussSim       SUCCESS ==================================================================
MainEventGaussSim       SUCCESS Requested to process 5 events
MainEventGaussSim       SUCCESS ==================================================================
MainSimulation             INFO Member list: GaudiSequencer/MakeMainSim, GaudiSequencer/SimMonitor
MakeMainSim                INFO Member list: GaussRedecayCtrFilter/RegisterNewEvent, GaussHepMCSplitter, GaudiSequencer/SplitSimulation, GenerationToSimulation/GenToSim, GiGaFlushAlgorithm/GiGaFlush, GiGaCheckEventStatus/GiGaCheckEvent, SimulationToMCTruth/SimToMCTruth, GaudiSequencer/DetectorsHits, GaudiSequencer/MergeMainSim, GaudiSequencer/MainEventDataPacking
GaussHepMCSplitter        ERROR Could not retrieve ParticleProperty
GaussHepMCSplitter.Re...SUCCESS ==================================================================
GaussHepMCSplitter.Re...SUCCESS Using as production engine RedecayProduction
GaussHepMCSplitter.Re...SUCCESS ==================================================================
SplitSimulation            INFO Member list: SimInit/SplitSim, GaudiSequencer/MakeMainSplitSim
SplitSim                SUCCESS ==================================================================
SplitSim                SUCCESS Requested to process 5 events
SplitSim                SUCCESS ==================================================================
MakeMainSplitSim           INFO Member list: GenerationToSimulation/GenToSimSplit, GiGaFlushAlgorithm/GiGaFlushSplit, GiGaCheckEventStatus/GiGaCheckEventSplit, SimulationToMCTruth/SimToMCTruthSplit, GaudiSequencer/DetectorsHitsSplit, GaussRedecayPrintMCParticles/SplitPrint, GaudiSequencer/PostSimFilterSeq, with rootInTES 'Split/'
DetectorsHitsSplit         INFO Member list: GetTrackerHitsAlg/GetPuVetoHitsSplit, GetTrackerHitsAlg/GetVeloHitsSplit, GetTrackerHitsAlg/GetTTHitsSplit, GetTrackerHitsAlg/GetITHitsSplit, GetTrackerHitsAlg/GetOTHitsSplit, GaudiSequencer/RichHitsSplit, GetCaloHitsAlg/GetSpdHitsSplit, GetCaloHitsAlg/GetPrsHitsSplit, GetCaloHitsAlg/GetEcalHitsSplit, GetCaloHitsAlg/GetHcalHitsSplit, GetTrackerHitsAlg/GetMuonHitsSplit
RichHitsSplit              INFO Member list: GetMCRichHitsAlg/GetRichHitsSplit, GetMCRichOpticalPhotonsAlg/GetRichPhotonsSplit, GetMCRichSegmentsAlg/GetRichSegmentsSplit, GetMCRichTracksAlg/GetRichTracksSplit
GetRichHitsSplit           INFO Filling 'Split/MC/Rich/Hits' from G4 collections 'Rich1TopHC' 'Rich1BotHC' 'Rich2LeftHC' 'Rich2RightHC'
GetRichHitsSplit           INFO Using Rich1 Rich2 Detectors
GetRichPhotonsSplit        INFO Filling 'Split/MC/Rich/OpticalPhotons' from G4 collections 'Rich1TopHC' 'Rich1BotHC' 'Rich2LeftHC' 'Rich2RightHC'
GetRichPhotonsSplit        INFO Using Rich1 Rich2 Detectors
GetRichSegmentsSplit       INFO Filling 'Split/MC/Rich/Segments' from G4 collections 'Rich1TopHC' 'Rich1BotHC' 'Rich2LeftHC' 'Rich2RightHC'
GetRichSegmentsSplit       INFO Using Rich1 Rich2 Detectors
GetRichTracksSplit         INFO Filling 'Split/MC/Rich/Tracks' from G4 collections 'Rich1TopHC' 'Rich1BotHC' 'Rich2LeftHC' 'Rich2RightHC'
GetRichTracksSplit         INFO Using Rich1 Rich2 Detectors
PostSimFilterSeq           INFO Member list: ConversionFilter, with rootInTES 'Split/'
ConversionFilter           INFO Filtering on gamma conversion with D*(2007)0 in the decay chain
DetectorsHits              INFO Member list: GetTrackerHitsAlg/GetPuVetoHits, GetTrackerHitsAlg/GetVeloHits, GetTrackerHitsAlg/GetTTHits, GetTrackerHitsAlg/GetITHits, GetTrackerHitsAlg/GetOTHits, GaudiSequencer/RichHits, GetCaloHitsAlg/GetSpdHits, GetCaloHitsAlg/GetPrsHits, GetCaloHitsAlg/GetEcalHits, GetCaloHitsAlg/GetHcalHits, GetTrackerHitsAlg/GetMuonHits
RichHits                   INFO Member list: GetMCRichHitsAlg/GetRichHits, GetMCRichOpticalPhotonsAlg/GetRichPhotons, GetMCRichSegmentsAlg/GetRichSegments, GetMCRichTracksAlg/GetRichTracks
GetRichHits                INFO Filling 'MC/Rich/Hits' from G4 collections 'Rich1TopHC' 'Rich1BotHC' 'Rich2LeftHC' 'Rich2RightHC'
GetRichHits                INFO Using Rich1 Rich2 Detectors
GetRichPhotons             INFO Filling 'MC/Rich/OpticalPhotons' from G4 collections 'Rich1TopHC' 'Rich1BotHC' 'Rich2LeftHC' 'Rich2RightHC'
GetRichPhotons             INFO Using Rich1 Rich2 Detectors
GetRichSegments            INFO Filling 'MC/Rich/Segments' from G4 collections 'Rich1TopHC' 'Rich1BotHC' 'Rich2LeftHC' 'Rich2RightHC'
GetRichSegments            INFO Using Rich1 Rich2 Detectors
GetRichTracks              INFO Filling 'MC/Rich/Tracks' from G4 collections 'Rich1TopHC' 'Rich1BotHC' 'Rich2LeftHC' 'Rich2RightHC'
GetRichTracks              INFO Using Rich1 Rich2 Detectors
MergeMainSim               INFO Member list: GaussRedecayMergeAndClean, GaudiSequencer/RichPaddingMain
GaussRedecayMergeAndC...  DEBUG Initialize base class GaudiCommon<Algorithm>
GaussRedecayMergeAndC...  DEBUG could not locate CounterSummarySvc, no counter summary will be made
GaussRedecayMergeAndC...  DEBUG List of ALL properties of GaussRedecayMergeAndClean/GaussRedecayMergeAndClean  #properties = NN
GaussRedecayMergeAndC...  DEBUG Property ['Name': Value] =  'AuditExecute':True
GaussRedecayMergeAndC...  DEBUG Property ['Name': Value] =  'AuditFinalize':True
GaussRedecayMergeAndC...  DEBUG Property ['Name': Value] =  'AuditInitialize':True
GaussRedecayMergeAndC...  DEBUG Property ['Name': Value] =  'AuditStart':True
GaussRedecayMergeAndC...  DEBUG Property ['Name': Value] =  'AuditStop':True
GaussRedecayMergeAndC...  DEBUG Property ['Name': Value] =  'Cardinality':1
GaussRedecayMergeAndC...  DEBUG Property ['Name': Value] =  'Context':
GaussRedecayMergeAndC...  DEBUG Property ['Name': Value] =  'CounterList':[ '.*' ]
GaussRedecayMergeAndC...  DEBUG Property ['Name': Value] =  'Enable':True
GaussRedecayMergeAndC...  DEBUG Property ['Name': Value] =  'ErrorMax':1
GaussRedecayMergeAndC...  DEBUG Property ['Name': Value] =  'ErrorsPrint':True
GaussRedecayMergeAndC...  DEBUG Property ['Name': Value] =  'ExtraInputs':[]
GaussRedecayMergeAndC...  DEBUG Property ['Name': Value] =  'ExtraOutputs':[]
GaussRedecayMergeAndC...  DEBUG Property ['Name': Value] =  'GaussRedecay':GaussRedecay
GaussRedecayMergeAndC...  DEBUG Property ['Name': Value] =  'GenCollisionLocation':Gen/Collisions
GaussRedecayMergeAndC...  DEBUG Property ['Name': Value] =  'HepMCEventLocation':Gen/HepMCEvents
GaussRedecayMergeAndC...  DEBUG Property ['Name': Value] =  'MCCaloHitsLocation':[ 'MC/Spd/Hits' , 'MC/Prs/Hits' , 'MC/Ecal/Hits' , 'MC/Hcal/Hits' ]
GaussRedecayMergeAndC...  DEBUG Property ['Name': Value] =  'MCHeader':MC/Header
GaussRedecayMergeAndC...  DEBUG Property ['Name': Value] =  'MCHitsLocation':[ 'MC/PuVeto/Hits' , 'MC/Velo/Hits' , 'MC/TT/Hits' , 'MC/IT/Hits' , 'MC/OT/Hits' , 'MC/Muon/Hits' ]
GaussRedecayMergeAndC...  DEBUG Property ['Name': Value] =  'MCRichHitsLocation':MC/Rich/Hits
GaussRedecayMergeAndC...  DEBUG Property ['Name': Value] =  'MCRichOpticalPhotonsLocation':MC/Rich/OpticalPhotons
GaussRedecayMergeAndC...  DEBUG Property ['Name': Value] =  'MCRichSegmentsLocation':MC/Rich/Segments
GaussRedecayMergeAndC...  DEBUG Property ['Name': Value] =  'MCRichTracksLocation':MC/Rich/Tracks
GaussRedecayMergeAndC...  DEBUG Property ['Name': Value] =  'MonitorService':MonitorSvc
GaussRedecayMergeAndC...  DEBUG Property ['Name': Value] =  'NeededResources':[  ]
GaussRedecayMergeAndC...  DEBUG Property ['Name': Value] =  'OutputLevel':2
GaussRedecayMergeAndC...  DEBUG Property ['Name': Value] =  'Particles':MC/Particles
GaussRedecayMergeAndC...  DEBUG Property ['Name': Value] =  'PropertiesPrint':False
GaussRedecayMergeAndC...  DEBUG Property ['Name': Value] =  'RegisterForContextService':True
GaussRedecayMergeAndC...  DEBUG Property ['Name': Value] =  'RequireObjects':[  ]
GaussRedecayMergeAndC...  DEBUG Property ['Name': Value] =  'RootInTES':
GaussRedecayMergeAndC...  DEBUG Property ['Name': Value] =  'SignalTESROOT':Split/
GaussRedecayMergeAndC...  DEBUG Property ['Name': Value] =  'StatPrint':True
GaussRedecayMergeAndC...  DEBUG Property ['Name': Value] =  'Timeline':False
GaussRedecayMergeAndC...  DEBUG Property ['Name': Value] =  'TypePrint':True
GaussRedecayMergeAndC...  DEBUG Property ['Name': Value] =  'Vertices':MC/Vertices
GaussRedecayMergeAndC...  DEBUG Property ['Name': Value] =  'VetoObjects':[  ]
GaussRedecayMergeAndC...  DEBUG input handles: 0
GaussRedecayMergeAndC...  DEBUG output handles: 0
GaussRedecayMergeAndC...  DEBUG Data Deps for GaussRedecayMergeAndClean
RichPaddingMain            INFO Member list: Rich::MC::MCPartToMCRichTrackAlg/MCPartToMCRichTrack, Rich::MC::MCRichHitToMCRichOpPhotAlg/MCRichHitToMCRichOpPhot
MainEventDataPacking       INFO Member list: PackMCParticle, PackMCVertex, DataPacking::Pack<LHCb::MCVeloHitPacker>/MCVeloHitPacker, DataPacking::Pack<LHCb::MCPuVetoHitPacker>/MCPuVetoHitPacker, DataPacking::Pack<LHCb::MCTTHitPacker>/MCTTHitPacker, DataPacking::Pack<LHCb::MCITHitPacker>/MCITHitPacker, DataPacking::Pack<LHCb::MCOTHitPacker>/MCOTHitPacker, DataPacking::Pack<LHCb::MCMuonHitPacker>/MCMuonHitPacker, DataPacking::Pack<LHCb::MCPrsHitPacker>/MCPrsHitPacker, DataPacking::Pack<LHCb::MCSpdHitPacker>/MCSpdHitPacker, DataPacking::Pack<LHCb::MCEcalHitPacker>/MCEcalHitPacker, DataPacking::Pack<LHCb::MCHcalHitPacker>/MCHcalHitPacker, DataPacking::Pack<LHCb::MCRichHitPacker>/MCRichHitPacker, DataPacking::Pack<LHCb::MCRichOpticalPhotonPacker>/MCRichOpPhotPacker, DataPacking::Pack<LHCb::MCRichSegmentPacker>/MCRichSegmentPacker, DataPacking::Pack<LHCb::MCRichTrackPacker>/MCRichTrackPacker
SimMonitor                 INFO Member list: GiGaGetEventAlg/GiGaGetMainEvent, MCTruthMonitor/MainMCTruthMonitor, GiGaGetHitsAlg, GaudiSequencer/DetectorsMonitor, GaudiSequencer/DataUnpackTest
DetectorsMonitor           INFO Member list: VeloGaussMoni, MCHitMonitor/TTHitMonitor, MCHitMonitor/ITHitMonitor, MCHitMonitor/OTHitMonitor, MCCaloMonitor/SpdMonitor, MCCaloMonitor/PrsMonitor, MCCaloMonitor/EcalMonitor, MCCaloMonitor/HcalMonitor, MuonHitChecker
TTHitMonitor.MCPartic...   INFO MCParticle Momentum cut     : 0 GeV/c < P < 1.79769e+305 GeV/c
TTHitMonitor.MCPartic...   INFO            Beta * gamma cut : 0 < beta*gamma
TTHitMonitor.MCPartic...   INFO            Eta cut          : -1.79769e+308 < P < 1.79769e+308
ITHitMonitor.MCPartic...   INFO MCParticle Momentum cut     : 0 GeV/c < P < 1.79769e+305 GeV/c
ITHitMonitor.MCPartic...   INFO            Beta * gamma cut : 0 < beta*gamma
ITHitMonitor.MCPartic...   INFO            Eta cut          : -1.79769e+308 < P < 1.79769e+308
OTHitMonitor.MCPartic...   INFO MCParticle Momentum cut     : 0 GeV/c < P < 1.79769e+305 GeV/c
OTHitMonitor.MCPartic...   INFO            Beta * gamma cut : 0 < beta*gamma
OTHitMonitor.MCPartic...   INFO            Eta cut          : -1.79769e+308 < P < 1.79769e+308
DataUnpackTest             INFO Member list: UnpackMCVertex, UnpackMCParticle, CompareMCVertex, CompareMCParticle, DataPacking::Unpack<LHCb::MCPuVetoHitPacker>/UnpackPuVetoHits, DataPacking::Check<LHCb::MCPuVetoHitPacker>/CheckPuVetoHits, DataPacking::Unpack<LHCb::MCVeloHitPacker>/UnpackVeloHits, DataPacking::Check<LHCb::MCVeloHitPacker>/CheckVeloHits, DataPacking::Unpack<LHCb::MCTTHitPacker>/UnpackTTHits, DataPacking::Check<LHCb::MCTTHitPacker>/CheckTTHits, DataPacking::Unpack<LHCb::MCITHitPacker>/UnpackITHits, DataPacking::Check<LHCb::MCITHitPacker>/CheckITHits, DataPacking::Unpack<LHCb::MCOTHitPacker>/UnpackOTHits, DataPacking::Check<LHCb::MCOTHitPacker>/CheckOTHits, DataPacking::Unpack<LHCb::MCRichHitPacker>/UnpackRichHits, DataPacking::Unpack<LHCb::MCRichOpticalPhotonPacker>/UnpackRichOpPhot, DataPacking::Unpack<LHCb::MCRichSegmentPacker>/UnpackRichSegments, DataPacking::Unpack<LHCb::MCRichTrackPacker>/UnpackRichTracks, DataPacking::Check<LHCb::MCRichHitPacker>/CheckRichHits, DataPacking::Check<LHCb::MCRichOpticalPhotonPacker>/CheckRichOpPhot, DataPacking::Check<LHCb::MCRichSegmentPacker>/CheckRichSegments, DataPacking::Check<LHCb::MCRichTrackPacker>/CheckRichTracks, DataPacking::Unpack<LHCb::MCSpdHitPacker>/UnpackSpdHits, DataPacking::Check<LHCb::MCSpdHitPacker>/CheckSpdHits, DataPacking::Unpack<LHCb::MCPrsHitPacker>/UnpackPrsHits, DataPacking::Check<LHCb::MCPrsHitPacker>/CheckPrsHits, DataPacking::Unpack<LHCb::MCEcalHitPacker>/UnpackEcalHits, DataPacking::Check<LHCb::MCEcalHitPacker>/CheckEcalHits, DataPacking::Unpack<LHCb::MCHcalHitPacker>/UnpackHcalHits, DataPacking::Check<LHCb::MCHcalHitPacker>/CheckHcalHits, DataPacking::Unpack<LHCb::MCMuonHitPacker>/UnpackMuonHits, DataPacking::Check<LHCb::MCMuonHitPacker>/CheckMuonHits
EventLoopMgr            WARNING Unable to locate service "EventSelector"
EventLoopMgr            WARNING No events will be processed from external input.
ApplicationMgr             INFO Application Manager Initialized successfully
ApplicationMgr             INFO Application Manager Started successfully
GaussGen                   INFO Evt 1,  Run 1082,  Nr. in job = 1 with seeds [1082, 1, 2119103972, 0]
MainEventGaussSim          INFO Evt 1,  Run 1082,  Nr. in job = 1 with seeds [1082, 1, 1677927199, 0]
SplitSim                   INFO Evt 1,  Run 1082,  Nr. in job = 1 with seeds [1082, 1, 1723832051, 0]
GiGa.GiGaMgr               INFO GiGaRunManager::  Geometry will be extracted from GaussGeo
 FTFP_BERT : new threshold between BERT and FTFP is over the interval
 for pions :   3 to 6 GeV
 for kaons :   3 to 6 GeV
 for proton :  3 to 6 GeV
 for neutron : 3 to 6 GeV
 Rich2 scintillation yield raw ScaleFactor  effective ScaleFactor  ScaleComponents 0.6   0.17104  0.285066   1
RichHpdPhotoElectricEffect UseHpdMagDistortions = 0
RichHpdPhotoElectricEffect PsfPreDc06Flag       = 0
RichHpdPhotoElectricEffect UseNominalHpdQE =   0
RichHpd Hit Smearing Flag and Values  =   1  0.760  0.085   0.000
RichHpdProperties          INFO Total Number of hpds in Rich1 = 196
RichHpdProperties          INFO Total Number of hpds in Rich2 = 288
RichHpdProperties          INFO Filled the HPD QE, PSF and Demag tables for  RICH
 RichG4Cerenkov Rich2 backgrActivateFlag  Rich2 backgrprob  0  0.5
G4Transportation:  Current values for thresholds related to  the killing of looping tracks:
    Warning Energy   = 100 MeV   ( below this tracks are killed without warning )
    Important Energy = 250  ( above this tracks are given multiple chances )
    Extra Trials     = 10 'important' tracks, i.e. those above 'important' energy
Rich Hpd SiHitEfficiency Used for Backscatter  BackScatterCorrectedProb 0.85   0.0385953
GiGa.ModularPL             INFO  The production cut for gamma is set to 	5 mm
GiGa.ModularPL             INFO  The production cut for electron is set to 	5 mm
GiGa.ModularPL             INFO  The production cut for positron is set to 	5 mm
====================================================================
                  HADRONIC PROCESSES SUMMARY (verbose level 1)
                           Hadronic Processes for neutron
  Process: hadElastic
        Model:             hElasticCHIPS: 0 eV  ---> 100 TeV
     Cr_sctns:        G4NeutronElasticXS: 0 eV  ---> 100 TeV
  Process: neutronInelastic
        Model:                      FTFP: 3 GeV ---> 100 TeV
        Model:            BertiniCascade: 0 eV  ---> 6 GeV
     Cr_sctns:      G4NeutronInelasticXS: 0 eV  ---> 100 TeV
  Process: nCapture
        Model:               nRadCapture: 0 eV  ---> 100 TeV
     Cr_sctns:        G4NeutronCaptureXS: 0 eV  ---> 100 TeV
  Process: nKiller
                           Hadronic Processes for GenericIon
  Process: ionInelastic
        Model:  Binary Light Ion Cascade: 0 eV /n ---> 6 GeV/n
        Model:                      FTFP: 3 GeV/n ---> 100 TeV/n
     Cr_sctns:  Glauber-Gribov Nucl-nucl: 0 eV  ---> 100 TeV
                           Hadronic Processes for He3
  Process: He3Inelastic
        Model:  Binary Light Ion Cascade: 0 eV /n ---> 6 GeV/n
        Model:                      FTFP: 3 GeV/n ---> 100 TeV/n
     Cr_sctns:  Glauber-Gribov Nucl-nucl: 0 eV  ---> 100 TeV
  Process: hadElastic
        Model:              hElasticLHEP: 0 eV /n ---> 100 TeV/n
     Cr_sctns:  Glauber-Gribov Nucl-nucl: 0 eV  ---> 100 TeV
                           Hadronic Processes for alpha
  Process: alphaInelastic
        Model:  Binary Light Ion Cascade: 0 eV /n ---> 6 GeV/n
        Model:                      FTFP: 3 GeV/n ---> 100 TeV/n
     Cr_sctns:  Glauber-Gribov Nucl-nucl: 0 eV  ---> 100 TeV
  Process: hadElastic
        Model:              hElasticLHEP: 0 eV /n ---> 100 TeV/n
     Cr_sctns:  Glauber-Gribov Nucl-nucl: 0 eV  ---> 100 TeV
                           Hadronic Processes for anti_He3
  Process: hadElastic
        Model:              hElasticLHEP: 0 eV /n ---> 100.1 MeV/n
        Model:              AntiAElastic: 100 MeV/n ---> 100 TeV/n
     Cr_sctns:              AntiAGlauber: 0 eV  ---> 100 TeV
  Process: anti_He3Inelastic
        Model:                      FTFP: 0 eV /n ---> 100 TeV/n
     Cr_sctns:              AntiAGlauber: 0 eV  ---> 100 TeV
  Process: hFritiofCaptureAtRest
                           Hadronic Processes for anti_alpha
  Process: hadElastic
        Model:              hElasticLHEP: 0 eV /n ---> 100.1 MeV/n
        Model:              AntiAElastic: 100 MeV/n ---> 100 TeV/n
     Cr_sctns:              AntiAGlauber: 0 eV  ---> 100 TeV
  Process: anti_alphaInelastic
        Model:                      FTFP: 0 eV /n ---> 100 TeV/n
     Cr_sctns:              AntiAGlauber: 0 eV  ---> 100 TeV
  Process: hFritiofCaptureAtRest
                           Hadronic Processes for anti_deuteron
  Process: hadElastic
        Model:              hElasticLHEP: 0 eV /n ---> 100.1 MeV/n
        Model:              AntiAElastic: 100 MeV/n ---> 100 TeV/n
     Cr_sctns:              AntiAGlauber: 0 eV  ---> 100 TeV
  Process: anti_deuteronInelastic
        Model:                      FTFP: 0 eV /n ---> 100 TeV/n
     Cr_sctns:              AntiAGlauber: 0 eV  ---> 100 TeV
  Process: hFritiofCaptureAtRest
                           Hadronic Processes for anti_neutron
  Process: hadElastic
        Model:              hElasticLHEP: 0 eV  ---> 100.1 MeV
        Model:              AntiAElastic: 100 MeV ---> 100 TeV
     Cr_sctns:              AntiAGlauber: 0 eV  ---> 100 TeV
  Process: anti_neutronInelastic
        Model:                      FTFP: 0 eV  ---> 100 TeV
     Cr_sctns:              AntiAGlauber: 0 eV  ---> 100 TeV
  Process: hFritiofCaptureAtRest
                           Hadronic Processes for anti_proton
  Process: hadElastic
        Model:              hElasticLHEP: 0 eV  ---> 100.1 MeV
        Model:              AntiAElastic: 100 MeV ---> 100 TeV
     Cr_sctns:              AntiAGlauber: 0 eV  ---> 100 TeV
  Process: anti_protonInelastic
        Model:                      FTFP: 0 eV  ---> 100 TeV
     Cr_sctns:              AntiAGlauber: 0 eV  ---> 100 TeV
  Process: hFritiofCaptureAtRest
                           Hadronic Processes for anti_triton
  Process: hadElastic
        Model:              hElasticLHEP: 0 eV /n ---> 100.1 MeV/n
        Model:              AntiAElastic: 100 MeV/n ---> 100 TeV/n
     Cr_sctns:              AntiAGlauber: 0 eV  ---> 100 TeV
  Process: anti_tritonInelastic
        Model:                      FTFP: 0 eV /n ---> 100 TeV/n
     Cr_sctns:              AntiAGlauber: 0 eV  ---> 100 TeV
  Process: hFritiofCaptureAtRest
                           Hadronic Processes for deuteron
  Process: dInelastic
        Model:  Binary Light Ion Cascade: 0 eV /n ---> 6 GeV/n
        Model:                      FTFP: 3 GeV/n ---> 100 TeV/n
     Cr_sctns:  Glauber-Gribov Nucl-nucl: 0 eV  ---> 100 TeV
  Process: hadElastic
        Model:              hElasticLHEP: 0 eV /n ---> 100 TeV/n
     Cr_sctns:  Glauber-Gribov Nucl-nucl: 0 eV  ---> 100 TeV
                           Hadronic Processes for e+
  Process: electronNuclear
        Model:   G4ElectroVDNuclearModel: 0 eV  ---> 1 PeV
     Cr_sctns:          ElectroNuclearXS: 0 eV  ---> 100 TeV
                           Hadronic Processes for e-
  Process: electronNuclear
        Model:   G4ElectroVDNuclearModel: 0 eV  ---> 1 PeV
     Cr_sctns:          ElectroNuclearXS: 0 eV  ---> 100 TeV
                           Hadronic Processes for gamma
  Process: photonNuclear
        Model:            BertiniCascade: 0 eV  ---> 6 GeV
        Model:           TheoFSGenerator: 3 GeV ---> 100 TeV
     Cr_sctns:            PhotoNuclearXS: 0 eV  ---> 100 TeV
                           Hadronic Processes for kaon+
  Process: hadElastic
        Model:              hElasticLHEP: 0 eV  ---> 100 TeV
     Cr_sctns:            Glauber-Gribov: 0 eV  ---> 100 TeV
  Process: kaon+Inelastic
        Model:                      FTFP: 3 GeV ---> 100 TeV
        Model:            BertiniCascade: 0 eV  ---> 6 GeV
     Cr_sctns:            Glauber-Gribov: 0 eV  ---> 100 TeV
                           Hadronic Processes for kaon-
  Process: hadElastic
        Model:              hElasticLHEP: 0 eV  ---> 100 TeV
     Cr_sctns:            Glauber-Gribov: 0 eV  ---> 100 TeV
  Process: kaon-Inelastic
        Model:                      FTFP: 3 GeV ---> 100 TeV
        Model:            BertiniCascade: 0 eV  ---> 6 GeV
     Cr_sctns:            Glauber-Gribov: 0 eV  ---> 100 TeV
  Process: hBertiniCaptureAtRest
                           Hadronic Processes for lambda
  Process: hadElastic
        Model:              hElasticLHEP: 0 eV  ---> 100 TeV
     Cr_sctns:            Glauber-Gribov: 0 eV  ---> 100 TeV
  Process: lambdaInelastic
        Model:            BertiniCascade: 0 eV  ---> 6 GeV
        Model:                      FTFP: 3 GeV ---> 100 TeV
     Cr_sctns:            Glauber-Gribov: 0 eV  ---> 100 TeV
                           Hadronic Processes for mu+
  Process: muonNuclear
        Model:      G4MuonVDNuclearModel: 0 eV  ---> 1 PeV
     Cr_sctns:     KokoulinMuonNuclearXS: 0 eV  ---> 100 TeV
                           Hadronic Processes for mu-
  Process: muonNuclear
        Model:      G4MuonVDNuclearModel: 0 eV  ---> 1 PeV
     Cr_sctns:     KokoulinMuonNuclearXS: 0 eV  ---> 100 TeV
  Process: muMinusCaptureAtRest
                           Hadronic Processes for pi+
  Process: hadElastic
        Model:           hElasticGlauber: 0 eV  ---> 100 TeV
     Cr_sctns:  BarashenkovGlauberGribov: 0 eV  ---> 100 TeV
  Process: pi+Inelastic
        Model:                      FTFP: 3 GeV ---> 100 TeV
        Model:            BertiniCascade: 0 eV  ---> 6 GeV
     Cr_sctns:  BarashenkovGlauberGribov: 0 eV  ---> 100 TeV
                           Hadronic Processes for pi-
  Process: hadElastic
        Model:           hElasticGlauber: 0 eV  ---> 100 TeV
     Cr_sctns:  BarashenkovGlauberGribov: 0 eV  ---> 100 TeV
  Process: pi-Inelastic
        Model:                      FTFP: 3 GeV ---> 100 TeV
        Model:            BertiniCascade: 0 eV  ---> 6 GeV
     Cr_sctns:  BarashenkovGlauberGribov: 0 eV  ---> 100 TeV
  Process: hBertiniCaptureAtRest
                           Hadronic Processes for proton
  Process: hadElastic
        Model:             hElasticCHIPS: 0 eV  ---> 100 TeV
     Cr_sctns:  BarashenkovGlauberGribov: 0 eV  ---> 100 TeV
  Process: protonInelastic
        Model:                      FTFP: 3 GeV ---> 100 TeV
        Model:            BertiniCascade: 0 eV  ---> 6 GeV
     Cr_sctns:  BarashenkovGlauberGribov: 0 eV  ---> 100 TeV
                           Hadronic Processes for triton
  Process: tInelastic
        Model:  Binary Light Ion Cascade: 0 eV /n ---> 6 GeV/n
        Model:                      FTFP: 3 GeV/n ---> 100 TeV/n
     Cr_sctns:  Glauber-Gribov Nucl-nucl: 0 eV  ---> 100 TeV
  Process: hadElastic
        Model:              hElasticLHEP: 0 eV /n ---> 100 TeV/n
     Cr_sctns:  Glauber-Gribov Nucl-nucl: 0 eV  ---> 100 TeV
================================================================
RichG4HistoSet2            INFO Now Booking Rich G4 Histo Set2
GaussGen                   INFO Evt 2,  Run 1082,  Nr. in job = 2 with seeds [1082, 2, 1474865432, 0]
MainEventGaussSim          INFO Evt 2,  Run 1082,  Nr. in job = 2 with seeds [1082, 2, 1044128089, 0]
SplitSim                   INFO Evt 2,  Run 1082,  Nr. in job = 2 with seeds [1082, 2, 1053930545, 0]
GaussGen                   INFO Evt 3,  Run 1082,  Nr. in job = 3 with seeds [1082, 3, 645125023, 0]
 PYTHIA Error in BeamRemnants::setKinematics: kinematics construction failed
MainEventGaussSim          INFO Evt 3,  Run 1082,  Nr. in job = 3 with seeds [1082, 3, 790725412, 0]
SplitSim                   INFO Evt 3,  Run 1082,  Nr. in job = 3 with seeds [1082, 3, 126272920, 0]
GaussGen                   INFO Evt 4,  Run 1082,  Nr. in job = 4 with seeds [1082, 4, 1010630449, 0]
 PYTHIA Warning in SimpleSpaceShower::pT2nextQCD: weight above unity
MainEventGaussSim          INFO Evt 4,  Run 1082,  Nr. in job = 4 with seeds [1082, 4, 1633773475, 0]
SplitSim                   INFO Evt 4,  Run 1082,  Nr. in job = 4 with seeds [1082, 4, 358048057, 0]
GaussGen                   INFO Evt 5,  Run 1082,  Nr. in job = 5 with seeds [1082, 5, 1094777801, 0]
MainEventGaussSim          INFO Evt 5,  Run 1082,  Nr. in job = 5 with seeds [1082, 5, 103049051, 0]
SplitSim                   INFO Evt 5,  Run 1082,  Nr. in job = 5 with seeds [1082, 5, 234743153, 0]
ApplicationMgr             INFO Application Manager Stopped successfully
GaussGen                SUCCESS ==================================================================
GaussGen                SUCCESS 5 events processed
GaussGen                SUCCESS ==================================================================
Generation              SUCCESS READ FSR: { Event type: 27162212  Hard Generator: Pythia8  Generation method: Generation.SignalPlain  DecFiles version: v31r1  njobs:1
 generator counters: AllEvt  key: 0  value: 357 / ZeroInt  key: 1  value: 77 / EvtGenerated  key: 2  value: 280 / IntGenerated  key: 3  value: 569 / EvtAccepted  key: 4  value: 5 / IntAccepted  key: 5  value: 12 / OnebGen  key: 10  value: 2 / ThreebGen  key: 11  value: 0 / PromptBGen  key: 12  value: 0 / OnecGen  key: 13  value: 51 / ThreecGen  key: 14  value: 10 / PromptCGen  key: 15  value: 1 / bAndcGen  key: 16  value: 0 / OnebAcc  key: 17  value: 0 / ThreebAcc  key: 18  value: 0 / PromptBAcc  key: 19  value: 0 / OnecAcc  key: 20  value: 5 / ThreecAcc  key: 21  value: 3 / PromptCAcc  key: 22  value: 0 / bAndcAcc  key: 23  value: 0 / BeforeLevelCut  key: 26  value: 20 / AfterLevelCut  key: 27  value: 2 / EvtInverted  key: 28  value: 3 / D0Acc  key: 64  value: 4 / antiD0Acc  key: 65  value: 4 / DplusAcc  key: 66  value: 1 / DminusAcc  key: 67  value: 1 / DsplusAcc  key: 68  value: 1 / DsminusAcc  key: 69  value: 1 / anticBaryonAcc  key: 71  value: 1 / DstarAcc  key: 89  value: 4 / D2starAcc  key: 90  value: 1 / EvtSignal  key: 91  value: 3 / EvtantiSignal  key: 92  value: 2 / BeforePCut  key: 93  value: 11 / AfterPCut  key: 94  value: 2 / BeforeantiPCut  key: 95  value: 9 / AfterantiPCut  key: 96  value: 0 / AllsubProcess  key: 100  value: 569 / non-diffractive  key: 201  value: 322 / A B -> A B elastic  key: 202  value: 131 / A B -> X B single diffractive  key: 203  value: 31 / A B -> A X single diffractive  key: 204  value: 35 / A B -> X X double diffractive  key: 205  value: 50 /
cross-sections: Total cross-secti  key: 0  value: 100.304 / non-diffracti  key: 101  value: 56.4185 / A B -> A B elast  key: 102  value: 22.2557 / A B -> X B single diffracti  key: 103  value: 6.41605 / A B -> A X single diffracti  key: 104  value: 6.41605 / A B -> X X double diffracti  key: 105  value: 8.79791 /  }
GenMonitorAlg              INFO
======================== Generators Statistics ====================
=                                                                 =
= Number of particles generated: 11491
= Number of events: 5
= Mean multiplicity: 2298.2
=                                                                 =
= Number of pseudo stable particles generated: 5090
= Number of events: 5
= Mean pseudo stable multiplicity: 1018
=                                                                 =
= Number of charged stable particles generated: 1576
= Number of events: 5
= Mean charged stable multiplicity: 315.2
=                                                                 =
= Number of charged stable particles in LHCb eta 349
= Number of events: 5
= Mean charged stable multiplicity in LHCb eta: 69.8
=                                                                 =
===================================================================
MainEventGaussSim       SUCCESS ==================================================================
MainEventGaussSim       SUCCESS 5 events processed
MainEventGaussSim       SUCCESS ==================================================================
SplitSim                SUCCESS ==================================================================
SplitSim                SUCCESS 5 events processed
SplitSim                SUCCESS ==================================================================
GetRichHitsSplit           INFO Av. # Invalid RICH flags              =    0.00 +- 0.00
GetRichHitsSplit           INFO Av. # MCRichHits              : Rich1 =    0.00 +- 0.00 (  0.00 +-0.00%) Rich2 =    0.00 +- 0.00 (  0.00 +-0.00%)
GetRichHitsSplit           INFO Av. # Invalid radiator hits   : Rich1 =    0.00 +- 0.00 (  0.00 +-0.00%) Rich2 =    0.00 +- 0.00 (  0.00 +-0.00%)
GetRichHitsSplit           INFO Av. # Signal Hits             : Rich1 =    0.00 +- 0.00 (  0.00 +-0.00%) Rich2 =    0.00 +- 0.00 (  0.00 +-0.00%)
GetRichHitsSplit           INFO Av. # Gas Quartz CK hits      : Rich1 =    0.00 +- 0.00 (  0.00 +-0.00%) Rich2 =    0.00 +- 0.00 (  0.00 +-0.00%)
GetRichHitsSplit           INFO Av. # HPD Quartz CK hits      : Rich1 =    0.00 +- 0.00 (  0.00 +-0.00%) Rich2 =    0.00 +- 0.00 (  0.00 +-0.00%)
GetRichHitsSplit           INFO Av. # Nitrogen CK hits        : Rich1 =    0.00 +- 0.00 (  0.00 +-0.00%) Rich2 =    0.00 +- 0.00 (  0.00 +-0.00%)
GetRichHitsSplit           INFO Av. # Aero Filter CK hits     : Rich1 =    0.00 +- 0.00 (  0.00 +-0.00%) Rich2 =    0.00 +- 0.00 (  0.00 +-0.00%)
GetRichHitsSplit           INFO Av. # Si back-scattering      : Rich1 =    0.00 +- 0.00 (  0.00 +-0.00%) Rich2 =    0.00 +- 0.00 (  0.00 +-0.00%)
GetRichHitsSplit           INFO Av. # Charged Track hits      : Rich1 =    0.00 +- 0.00 (  0.00 +-0.00%) Rich2 =    0.00 +- 0.00 (  0.00 +-0.00%)
GetRichHitsSplit           INFO Av. # Scintillation hits      : Rich1 =    0.00 +- 0.00 (  0.00 +-0.00%) Rich2 =    0.00 +- 0.00 (  0.00 +-0.00%)
GetRichHitsSplit           INFO Av. # All HPD reflection hits : Rich1 =    0.00 +- 0.00 (  0.00 +-0.00%) Rich2 =    0.00 +- 0.00 (  0.00 +-0.00%)
GetRichHitsSplit           INFO   Av. # QW/PC refl. hits      : Rich1 =    0.00 +- 0.00 (  0.00 +-0.00%) Rich2 =    0.00 +- 0.00 (  0.00 +-0.00%)
GetRichHitsSplit           INFO   Av. # Chromium refl. hits   : Rich1 =    0.00 +- 0.00 (  0.00 +-0.00%) Rich2 =    0.00 +- 0.00 (  0.00 +-0.00%)
GetRichHitsSplit           INFO   Av. # Air/QW refl. hits     : Rich1 =    0.00 +- 0.00 (  0.00 +-0.00%) Rich2 =    0.00 +- 0.00 (  0.00 +-0.00%)
GetRichHitsSplit           INFO   Av. # Air/PC refl. hits     : Rich1 =    0.00 +- 0.00 (  0.00 +-0.00%) Rich2 =    0.00 +- 0.00 (  0.00 +-0.00%)
GetRichHitsSplit           INFO   Av. # PC/QW refl. hits      : Rich1 =    0.00 +- 0.00 (  0.00 +-0.00%) Rich2 =    0.00 +- 0.00 (  0.00 +-0.00%)
GetRichHitsSplit           INFO   Av. # Silicon refl. hits    : Rich1 =    0.00 +- 0.00 (  0.00 +-0.00%) Rich2 =    0.00 +- 0.00 (  0.00 +-0.00%)
GetRichHitsSplit           INFO   Av. # Kovar refl. hits      : Rich1 =    0.00 +- 0.00 (  0.00 +-0.00%) Rich2 =    0.00 +- 0.00 (  0.00 +-0.00%)
GetRichHitsSplit           INFO   Av. # Kapton refl. hits     : Rich1 =    0.00 +- 0.00 (  0.00 +-0.00%) Rich2 =    0.00 +- 0.00 (  0.00 +-0.00%)
GetRichHitsSplit           INFO Av. # Signal CK MCRichHits    : Aero  =    0.00 +- 0.00 (  0.00 +-0.00%) Rich1Gas =    0.00 +- 0.00 (  0.00 +-0.00%) Rich2Gas =    0.00 +- 0.00 (  0.00 +-0.00%)
GetRichHitsSplit           INFO Av. # Rayleigh scattered hits : Aero  =    0.00 +- 0.00 (  0.00 +-0.00%) Rich1Gas =    0.00 +- 0.00 (  0.00 +-0.00%) Rich2Gas =    0.00 +- 0.00 (  0.00 +-0.00%)
GetRichHitsSplit           INFO Av. # MCParticle-less hits    : Aero  =    0.00 +- 0.00 (  0.00 +-0.00%) Rich1Gas =    0.00 +- 0.00 (  0.00 +-0.00%) Rich2Gas =    0.00 +- 0.00 (  0.00 +-0.00%)
GetRichHitsSplit           INFO Av. # Aero hits per tile     :
GetRichHitsSplit           INFO           tile =  0 hits =    0.00 +- 0.00 / event
GetRichHitsSplit           INFO           tile =  1 hits =    0.00 +- 0.00 / event
GetRichHitsSplit           INFO           tile =  2 hits =    0.00 +- 0.00 / event
GetRichHitsSplit           INFO           tile =  3 hits =    0.00 +- 0.00 / event
GetRichHitsSplit           INFO           tile =  4 hits =    0.00 +- 0.00 / event
GetRichHitsSplit           INFO           tile =  5 hits =    0.00 +- 0.00 / event
GetRichHitsSplit           INFO           tile =  6 hits =    0.00 +- 0.00 / event
GetRichHitsSplit           INFO           tile =  7 hits =    0.00 +- 0.00 / event
GetRichHitsSplit           INFO           tile =  8 hits =    0.00 +- 0.00 / event
GetRichHitsSplit           INFO           tile =  9 hits =    0.00 +- 0.00 / event
GetRichHitsSplit           INFO           tile = 10 hits =    0.00 +- 0.00 / event
GetRichHitsSplit           INFO           tile = 11 hits =    0.00 +- 0.00 / event
GetRichHitsSplit           INFO           tile = 12 hits =    0.00 +- 0.00 / event
GetRichHitsSplit           INFO           tile = 13 hits =    0.00 +- 0.00 / event
GetRichHitsSplit           INFO           tile = 14 hits =    0.00 +- 0.00 / event
GetRichHitsSplit           INFO           tile = 15 hits =    0.00 +- 0.00 / event
GetRichTracksSplit         INFO Av. # MCRichTracks         : Overall =     0.00 +-  0.00
GetRichHits                INFO Av. # Invalid RICH flags              =    0.00 +- 0.00
GetRichHits                INFO Av. # MCRichHits              : Rich1 =    0.00 +- 0.00 (  0.00 +-0.00%) Rich2 =    0.00 +- 0.00 (  0.00 +-0.00%)
GetRichHits                INFO Av. # Invalid radiator hits   : Rich1 =    0.00 +- 0.00 (  0.00 +-0.00%) Rich2 =    0.00 +- 0.00 (  0.00 +-0.00%)
GetRichHits                INFO Av. # Signal Hits             : Rich1 =    0.00 +- 0.00 (  0.00 +-0.00%) Rich2 =    0.00 +- 0.00 (  0.00 +-0.00%)
GetRichHits                INFO Av. # Gas Quartz CK hits      : Rich1 =    0.00 +- 0.00 (  0.00 +-0.00%) Rich2 =    0.00 +- 0.00 (  0.00 +-0.00%)
GetRichHits                INFO Av. # HPD Quartz CK hits      : Rich1 =    0.00 +- 0.00 (  0.00 +-0.00%) Rich2 =    0.00 +- 0.00 (  0.00 +-0.00%)
GetRichHits                INFO Av. # Nitrogen CK hits        : Rich1 =    0.00 +- 0.00 (  0.00 +-0.00%) Rich2 =    0.00 +- 0.00 (  0.00 +-0.00%)
GetRichHits                INFO Av. # Aero Filter CK hits     : Rich1 =    0.00 +- 0.00 (  0.00 +-0.00%) Rich2 =    0.00 +- 0.00 (  0.00 +-0.00%)
GetRichHits                INFO Av. # Si back-scattering      : Rich1 =    0.00 +- 0.00 (  0.00 +-0.00%) Rich2 =    0.00 +- 0.00 (  0.00 +-0.00%)
GetRichHits                INFO Av. # Charged Track hits      : Rich1 =    0.00 +- 0.00 (  0.00 +-0.00%) Rich2 =    0.00 +- 0.00 (  0.00 +-0.00%)
GetRichHits                INFO Av. # Scintillation hits      : Rich1 =    0.00 +- 0.00 (  0.00 +-0.00%) Rich2 =    0.00 +- 0.00 (  0.00 +-0.00%)
GetRichHits                INFO Av. # All HPD reflection hits : Rich1 =    0.00 +- 0.00 (  0.00 +-0.00%) Rich2 =    0.00 +- 0.00 (  0.00 +-0.00%)
GetRichHits                INFO   Av. # QW/PC refl. hits      : Rich1 =    0.00 +- 0.00 (  0.00 +-0.00%) Rich2 =    0.00 +- 0.00 (  0.00 +-0.00%)
GetRichHits                INFO   Av. # Chromium refl. hits   : Rich1 =    0.00 +- 0.00 (  0.00 +-0.00%) Rich2 =    0.00 +- 0.00 (  0.00 +-0.00%)
GetRichHits                INFO   Av. # Air/QW refl. hits     : Rich1 =    0.00 +- 0.00 (  0.00 +-0.00%) Rich2 =    0.00 +- 0.00 (  0.00 +-0.00%)
GetRichHits                INFO   Av. # Air/PC refl. hits     : Rich1 =    0.00 +- 0.00 (  0.00 +-0.00%) Rich2 =    0.00 +- 0.00 (  0.00 +-0.00%)
GetRichHits                INFO   Av. # PC/QW refl. hits      : Rich1 =    0.00 +- 0.00 (  0.00 +-0.00%) Rich2 =    0.00 +- 0.00 (  0.00 +-0.00%)
GetRichHits                INFO   Av. # Silicon refl. hits    : Rich1 =    0.00 +- 0.00 (  0.00 +-0.00%) Rich2 =    0.00 +- 0.00 (  0.00 +-0.00%)
GetRichHits                INFO   Av. # Kovar refl. hits      : Rich1 =    0.00 +- 0.00 (  0.00 +-0.00%) Rich2 =    0.00 +- 0.00 (  0.00 +-0.00%)
GetRichHits                INFO   Av. # Kapton refl. hits     : Rich1 =    0.00 +- 0.00 (  0.00 +-0.00%) Rich2 =    0.00 +- 0.00 (  0.00 +-0.00%)
GetRichHits                INFO Av. # Signal CK MCRichHits    : Aero  =    0.00 +- 0.00 (  0.00 +-0.00%) Rich1Gas =    0.00 +- 0.00 (  0.00 +-0.00%) Rich2Gas =    0.00 +- 0.00 (  0.00 +-0.00%)
GetRichHits                INFO Av. # Rayleigh scattered hits : Aero  =    0.00 +- 0.00 (  0.00 +-0.00%) Rich1Gas =    0.00 +- 0.00 (  0.00 +-0.00%) Rich2Gas =    0.00 +- 0.00 (  0.00 +-0.00%)
GetRichHits                INFO Av. # MCParticle-less hits    : Aero  =    0.00 +- 0.00 (  0.00 +-0.00%) Rich1Gas =    0.00 +- 0.00 (  0.00 +-0.00%) Rich2Gas =    0.00 +- 0.00 (  0.00 +-0.00%)
GetRichHits                INFO Av. # Aero hits per tile     :
GetRichHits                INFO           tile =  0 hits =    0.00 +- 0.00 / event
GetRichHits                INFO           tile =  1 hits =    0.00 +- 0.00 / event
GetRichHits                INFO           tile =  2 hits =    0.00 +- 0.00 / event
GetRichHits                INFO           tile =  3 hits =    0.00 +- 0.00 / event
GetRichHits                INFO           tile =  4 hits =    0.00 +- 0.00 / event
GetRichHits                INFO           tile =  5 hits =    0.00 +- 0.00 / event
GetRichHits                INFO           tile =  6 hits =    0.00 +- 0.00 / event
GetRichHits                INFO           tile =  7 hits =    0.00 +- 0.00 / event
GetRichHits                INFO           tile =  8 hits =    0.00 +- 0.00 / event
GetRichHits                INFO           tile =  9 hits =    0.00 +- 0.00 / event
GetRichHits                INFO           tile = 10 hits =    0.00 +- 0.00 / event
GetRichHits                INFO           tile = 11 hits =    0.00 +- 0.00 / event
GetRichHits                INFO           tile = 12 hits =    0.00 +- 0.00 / event
GetRichHits                INFO           tile = 13 hits =    0.00 +- 0.00 / event
GetRichHits                INFO           tile = 14 hits =    0.00 +- 0.00 / event
GetRichHits                INFO           tile = 15 hits =    0.00 +- 0.00 / event
GetRichTracks              INFO Av. # MCRichTracks         : Overall =     0.00 +-  0.00
GaussRedecayMergeAndC...  DEBUG Finalize base class GaudiAlgorithm
GaussRedecayMergeAndC...  DEBUG Tools to release :
GaussRedecayMergeAndC...  DEBUG Services to release :
GaussRedecayMergeAndC...  DEBUG Releasing service 'GaussRedecay'
VeloGaussMoni              INFO ------------------------------------------------------
VeloGaussMoni              INFO                 - VeloGaussMoni table -
VeloGaussMoni              INFO ------------------------------------------------------
VeloGaussMoni              INFO | ==> No MCHits found!
VeloGaussMoni              INFO ------------------------------------------------------
TTHitMonitor               INFO *** Summary ***
TTHitMonitor               INFO #hits per event: 0
TTHitMonitor               INFO Mean beta * gamma: 0
TTHitMonitor               INFO Most Probable deposited charge: 0
TTHitMonitor               INFO Half Sample width 0
ITHitMonitor               INFO *** Summary ***
ITHitMonitor               INFO #hits per event: 0
ITHitMonitor               INFO Mean beta * gamma: 0
ITHitMonitor               INFO Most Probable deposited charge: 0
ITHitMonitor               INFO Half Sample width 0
OTHitMonitor               INFO *** Summary ***
OTHitMonitor               INFO #hits per event: 0
OTHitMonitor               INFO Mean beta * gamma: 0
OTHitMonitor               INFO Most Probable deposited charge: 0
OTHitMonitor               INFO Half Sample width 0
MuonHitChecker             INFO -----------------------------------------------------------------
MuonHitChecker             INFO        Muon Monitoring Table
MuonHitChecker             INFO -----------------------------------------------------------------
MuonHitChecker             INFO  M1        M2        M3        M4        M5
MuonHitChecker             INFO 0.000  0.000  0.000  0.000  0.000   R1
MuonHitChecker             INFO 0.000  0.000  0.000  0.000  0.000   R2
MuonHitChecker             INFO 0.000  0.000  0.000  0.000  0.000   R3
MuonHitChecker             INFO 0.000  0.000  0.000  0.000  0.000   R4
MuonHitChecker             INFO -----------------------------------------------------------------
MuonHitChecker             INFO -------    Integrated over regions    ---------------------------
MuonHitChecker             INFO -----------------------------------------------------------------
MuonHitChecker             INFO 0.000  0.000  0.000  0.000  0.000   allR
MuonHitChecker             INFO  number of hits generated outside gaps volume 0
RootHistSvc             WARNING no ROOT output file name, Histograms cannot be persistified
EventLoopMgr               INFO Histograms converted successfully according to request.
LoKiSvc                 SUCCESS
Good Bye Good Bye Good Bye Good Bye Good Bye Good Bye Good Bye Good Bye Good Bye Good Bye Good Bye Good
Good Bye Good Bye Good Bye Good Bye Good Bye Good Bye Good Bye Good Bye Good Bye Good Bye Good Bye Good
LoKi                                                                                               LoKi
LoKi                                                                                               LoKi
LoKi                                       Good Bye from LoKi!                                     LoKi
LoKi                                                                                               LoKi
LoKi                                      (LOops & KInematics)                                     LoKi
LoKi                                                                                               LoKi
LoKi                         Smart & Friendly C++ Physics Analysis Tool Kit                        LoKi
LoKi                                                                                               LoKi
LoKi                                                                                               LoKi
LoKi                      LoKi mailing list ('LoKi-club') : lhcb-loki@cern.ch                      LoKi
LoKi      Comments, suggestions, criticism, ideas, questions and requests are *ALWAYS* welcome     LoKi
LoKi                                                                                               LoKi
Good Bye Good Bye Good Bye Good Bye Good Bye Good Bye Good Bye Good Bye Good Bye Good Bye Good Bye Good
Good Bye Good Bye Good Bye Good Bye Good Bye Good Bye Good Bye Good Bye Good Bye Good Bye Good Bye Good
ToolSvc                    INFO Removing all tools created by ToolSvc
SplitSim.SplitSimMemory SUCCESS Number of counters : 2
MainEventGaussSim.Mai...SUCCESS Number of counters : 2
ToolSvc.LoKi::Hybrid:...SUCCESS Number of counters : 1
Generation.SignalPlain  WARNING SignalPlain:: releaseSvc(IInterface):: IInterface* is not active StatusCode=FAILURE
Generation.SignalPlain  SUCCESS Exceptions/Errors/Warnings/Infos Statistics : 0/0/1/0
Generation.SignalPlain  SUCCESS  #WARNINGS   = 1        Message = 'releaseSvc(IInterface):: IInterface* is not active'
GaussGen.GaussGenMemory SUCCESS Number of counters : 2
Generation.SignalPlai...SUCCESS Number of counters : 8
Generation.SignalPlai...SUCCESS Exceptions/Errors/Warnings/Infos Statistics : 0/0/1/0
Generation.SignalPlai...SUCCESS  #WARNINGS   = 1        Message = '# of bad/null bins for efficiency histogram: 0/109'
 *-------  PYTHIA Event and Cross Section Statistics  -------------------------------------------------------------*
 *-------  End PYTHIA Event and Cross Section Statistics ----------------------------------------------------------*
 *-------  PYTHIA Error and Warning Messages Statistics  ----------------------------------------------------------*
 *-------  End PYTHIA Error and Warning Messages Statistics  ------------------------------------------------------*
GiGa.GiGaMgr               INFO GiGaRunManager:: GiGaRunManager Finalization
*****Chrono*****           INFO  The Final CPU consumption ( Chrono ) Table (ordered)
ChronoStatSvc.finalize()   INFO  Service finalized successfully
ApplicationMgr             INFO Application Manager Finalized successfully
ApplicationMgr             INFO Application Manager Terminated successfully
  Eur.Phys.J. C75 (2015) 3, 132  (http://arxiv.org/abs/1412.7420)
=======================================================================
======       Pre-compound/De-excitation Physics Parameters     ========
=======================================================================
Type of pre-compound inverse x-section              3
Pre-compound model active                           1
Pre-compound excitation low energy (MeV)            0.1
Pre-compound excitation high energy (MeV)           30
Type of de-excitation inverse x-section             3
Type of de-excitation factory                       Evaporation+GEM
Number of de-excitation channels                    68
Min excitation energy (keV)                         0.01
Min energy per nucleon for multifragmentation (MeV) 2e+05
Limit excitation energy for Fermi BreakUp (MeV)     20
Level density (1/MeV)                               0.075
Use simple level density model                      1
Use discrete excitation energy of the residual      0
Time limit for long lived isomeres (ns)             1e+12
Internal e- conversion flag                         1
Store e- internal conversion data                   0
Electron internal conversion ID                     2
Correlated gamma emission flag                      0
Max 2J for sampling of angular correlations         10
Upload data before 1st event for                Z < 9
=======================================================================

SplitSim.SplitSimMemory SUCCESS Number of counters : 2
 |    Counter                                      |     #     |    sum     | mean/eff^* | rms/err^*  |     min     |     max     |
MainEventGaussSim.Mai...SUCCESS Number of counters : 2
 |    Counter                                      |     #     |    sum     | mean/eff^* | rms/err^*  |     min     |     max     |
ToolSvc.LoKi::Hybrid:...SUCCESS Number of counters : 1
 |    Counter                                      |     #     |    sum     | mean/eff^* | rms/err^*  |     min     |     max     |
 | "# loaded from PYTHON"                          |         7 |          7 |     1.0000 |     0.0000 |      1.0000 |      1.0000 |
GaussGen.GaussGenMemory SUCCESS Number of counters : 2
 |    Counter                                      |     #     |    sum     | mean/eff^* | rms/err^*  |     min     |     max     |
Generation.SignalPlai...SUCCESS Number of counters : 8
 |    Counter                                      |     #     |    sum     | mean/eff^* | rms/err^*  |     min     |     max     |
 |*"Efficiency for  [D*(2007)0]cc "                |         5 |          5 |( 100.0000 +- 0.000000)%|   -------   |   -------   |
 |*"Efficiency for  [D0]cc "                       |         5 |          5 |( 100.0000 +- 0.000000)%|   -------   |   -------   |
 |*"Efficiency for  [K-]cc "                       |         5 |          5 |( 100.0000 +- 0.000000)%|   -------   |   -------   |
 |*"Efficiency for  [pi+]cc "                      |         5 |          5 |( 100.0000 +- 0.000000)%|   -------   |   -------   |
 |*"Efficiency for  gamma "                        |        20 |          5 |( 25.00000 +- 9.682458)%|   -------   |   -------   |
 |*"accept_events"                                 |        20 |          5 |( 25.00000 +- 9.682458)%|   -------   |   -------   |
 |*"accept_particles"                              |        20 |          5 |( 25.00000 +- 9.682458)%|   -------   |   -------   |
 | "selected marked"                               |        20 |        100 |     5.0000 |     0.0000 |      5.0000 |      5.0000 |
**************************************************************
**************************************************************
********************************************************************************
********************************************************************************
********************************************************************************
GenMonitorAlg           SUCCESS Booked 21 Histogram(s) : 1D=19 2D=2 
TTHitMonitor            SUCCESS Booked 4 Histogram(s) : 1D=4 
ITHitMonitor            SUCCESS Booked 6 Histogram(s) : 1D=6 
OTHitMonitor            SUCCESS Booked 6 Histogram(s) : 1D=6 
SplitSim.SplitSimMemory SUCCESS Booked 4 Histogram(s) : 1D=4 
MainEventGaussSim.Mai...SUCCESS Booked 4 Histogram(s) : 1D=4 
GaussGen.GaussGenMemory SUCCESS Booked 4 Histogram(s) : 1D=4 
Generation.SignalPlai...SUCCESS Booked 3 Histogram(s) : 2D=3 
